^C:\USERS\KHUMB\C++ GIT\EXERCISES\C3_U10_FRIENDS(2)\KHUNYI_U10EX\KHUNYI_U10EX\X64\DEBUG\CRITTER.OBJ|C:\USERS\KHUMB\C++ GIT\EXERCISES\C3_U10_FRIENDS(2)\KHUNYI_U10EX\KHUNYI_U10EX\X64\DEBUG\CRITTERMANAGER.OBJ|C:\USERS\KHUMB\C++ GIT\EXERCISES\C3_U10_FRIENDS(2)\KHUNYI_U10EX\KHUNYI_U10EX\X64\DEBUG\HELPER.OBJ|C:\USERS\KHUMB\C++ GIT\EXERCISES\C3_U10_FRIENDS(2)\KHUNYI_U10EX\KHUNYI_U10EX\X64\DEBUG\MAIN.OBJ
C:\USERS\KHUMB\C++ GIT\EXERCISES\C3_U10_FRIENDS(2)\KHUNYI_U10EX\X64\DEBUG\KHUNYI_U10EX.EXE
C:\USERS\KHUMB\C++ GIT\EXERCISES\C3_U10_FRIENDS(2)\KHUNYI_U10EX\KHUNYI_U10EX\X64\DEBUG\KHUNYI_U10EX.ILK
C:\USERS\KHUMB\C++ GIT\EXERCISES\C3_U10_FRIENDS(2)\KHUNYI_U10EX\X64\DEBUG\KHUNYI_U10EX.PDB
